<?xml version="1.0" encoding="utf-8"?>
<!-- Generator: Adobe Illustrator 16.0.0, SVG Export Plug-In . SVG Version: 6.00 Build 0)  -->
<!DOCTYPE svg PUBLIC "-//W3C//DTD SVG 1.1//EN" "http://www.w3.org/Graphics/SVG/1.1/DTD/svg11.dtd">
<svg version="1.1" xmlns="http://www.w3.org/2000/svg" xmlns:xlink="http://www.w3.org/1999/xlink" x="0px" y="0px" width="184px"
	 height="184px" viewBox="0 0 184 184" enable-background="new 0 0 184 184" xml:space="preserve">
<g id="Movil">
	<g>
		<path fill="#2C3E50" d="M86.683,1.5h10.634c19.599,1.181,38.766,8.81,53.628,21.671c18.581,15.73,30.176,39.226,31.555,63.52
			v10.647c-1.251,20.928-9.912,41.333-24.336,56.577c-15.618,16.877-37.89,27.249-60.826,28.585H86.662
			c-19.592-1.187-38.745-8.816-53.607-21.663C14.481,145.105,2.886,121.618,1.5,97.331V86.662
			c1.343-23.106,11.85-45.525,28.939-61.158C45.64,11.264,65.918,2.745,86.683,1.5"/>
		<path fill="#EFD050" d="M89.265,20.335c0.939-0.389,1.887-0.749,2.862-1.046c-0.289,9.347-0.042,18.701-0.148,28.048
			c-1.661-0.014-3.329,0-4.999-0.036c-0.261-0.219-0.785-0.643-1.053-0.854c-0.403-6.003-0.099-12.055,0.7-18.015
			C87.002,25.595,88.048,22.91,89.265,20.335"/>
		<path fill="#EDC92C" d="M92.127,19.289c0.863,0.339,1.732,0.686,2.603,1.039c4.171,8.266,3.344,17.839,3.464,26.804
			c-2.071,0.141-4.136,0.233-6.214,0.205C92.085,37.99,91.838,28.636,92.127,19.289"/>
		<path fill="#EDC92C" d="M73.773,27.858c3.507-4.914,9.616-7.275,15.492-7.523c-1.217,2.574-2.263,5.261-2.638,8.096
			c-0.799,5.96-1.103,12.012-0.7,18.015c0.269,0.212,0.792,0.636,1.053,0.854c-5.804-0.367-11.609-0.827-17.421-1.089
			C69.276,39.907,69.884,33.09,73.773,27.858"/>
		<path fill="#E0B500" d="M94.729,20.329c5.699,0.262,11.608,2.447,15.18,7.084c4.2,5.261,4.829,12.317,4.532,18.801
			c-5.423,0.148-10.825,0.671-16.248,0.919C98.073,38.167,98.9,28.593,94.729,20.329"/>
		<path fill="#DBB626" d="M63.337,48.207c1.096-2.305,4.108-1.923,6.222-1.994c5.812,0.262,11.616,0.721,17.421,1.089
			c1.669,0.035,3.337,0.021,5,0.035c2.079,0.028,4.143-0.063,6.215-0.205c5.423-0.247,10.824-0.77,16.247-0.919
			c1.839,0.014,3.868-0.12,5.479,0.926c1.951,1.831-0.658,4.15-2.468,4.752c-2.128,0.89-4.398,1.385-6.66,1.795
			c-7.692,1.323-15.512,1.188-23.29,1.252c-7.035-0.389-14.289-0.509-20.949-3.047C65.013,51.24,63.288,50.095,63.337,48.207"/>
		<path fill="#492A15" d="M66.554,51.89c6.66,2.538,13.914,2.658,20.949,3.047c-7.006,3.345-14.699,5.14-22.405,5.847
			C65.232,57.773,65.691,54.783,66.554,51.89"/>
		<path fill="#492A15" d="M110.793,53.686c2.263-0.41,4.532-0.904,6.66-1.796c0.771,2.893,1.485,5.861,1.259,8.88
			C116.011,58.48,113.423,56.061,110.793,53.686"/>
		<path fill="#492A15" d="M77.436,76.198c-1.768-2.086-0.813-6.724,2.623-5.437c0.184,0.7,0.375,1.393,0.58,2.086
			c-0.622-0.672-1.336-0.955-2.15-0.849c-0.664,1.825,1.287,3.132,2.857,3.274c1.612-0.057,2.333-1.598,3.288-2.645
			c1.725-2.143,5.479-2.863,7.367-0.544c1.499-1.874,4.427-1.796,6.243-0.452c1.152,0.728,1.803,1.972,2.736,2.92
			c1.435,1.47,4.32,0.325,4.651-1.591c0.171-1.889-1.618-0.785-2.275-0.106c0.205-0.707,0.41-1.414,0.607-2.114
			c1.534-0.622,3.387,0.389,3.43,2.064c0.346,2.631-1.669,4.949-4.017,5.819c-3.866,1.4-9.001,0.835-11.376-2.892
			C88.876,80.447,80.885,80.561,77.436,76.198"/>
		<path fill="#E9C29C" d="M87.503,54.938c7.777-0.064,15.598,0.07,23.29-1.252c2.63,2.376,5.219,4.794,7.918,7.085l0.191,0.162
			c-0.205,6.816-2.821,13.604-7.657,18.468c-5.443,5.685-13.504,8.682-21.338,8.011c-8.817-0.566-17.131-5.904-21.352-13.66
			c-2.277-3.939-3.253-8.463-3.458-12.967C72.804,60.078,80.496,58.282,87.503,54.938 M82.264,61.061
			c-2.927,1.435-2.616,6.462,0.552,7.374c3.061,1.237,6.101-2.574,4.603-5.388C86.775,60.969,84.125,60.085,82.264,61.061
			 M97.918,61.23c-2.708,1.534-2.312,6.038,0.579,7.155c2.772,1.315,5.947-1.902,5.014-4.688
			C103.157,61.202,99.996,59.809,97.918,61.23 M77.436,76.198c3.45,4.363,11.44,4.249,14.564-0.467
			c2.375,3.727,7.51,4.292,11.376,2.892c2.348-0.87,4.362-3.188,4.017-5.819c-0.043-1.675-1.896-2.686-3.43-2.064
			c-0.197,0.7-0.402,1.407-0.607,2.114c0.657-0.679,2.446-1.782,2.275,0.106c-0.331,1.916-3.217,3.061-4.651,1.591
			c-0.934-0.948-1.584-2.192-2.736-2.92c-1.816-1.344-4.744-1.422-6.243,0.452c-1.888-2.319-5.642-1.598-7.367,0.544
			c-0.955,1.047-1.676,2.588-3.288,2.645c-1.57-0.142-3.521-1.449-2.857-3.274c0.814-0.106,1.528,0.177,2.15,0.849
			c-0.205-0.693-0.396-1.386-0.58-2.086C76.623,69.474,75.667,74.112,77.436,76.198"/>
		<path fill="#E9C29C" d="M58.932,148.195c5.67,0.021,11.334,0.021,17.004,0c-0.919,5.056-1.866,10.111-2.87,15.152l-0.064,0.297
			C64.963,163.608,58.686,155.979,58.932,148.195"/>
		<path fill="#E9C29C" d="M108.898,148.202c5.395,0.007,10.782,0.014,16.17-0.007c0.24,7.77-6.01,15.392-14.035,15.449
			c-0.049-0.248-0.134-0.75-0.184-0.997C110.121,157.839,109.541,153.017,108.898,148.202"/>
		<path fill="#343433" d="M82.264,61.06c1.86-0.975,4.511-0.092,5.155,1.987c1.499,2.814-1.542,6.625-4.603,5.388
			C79.648,67.523,79.337,62.497,82.264,61.06 M84.329,61.619c-1.605,0.884-0.735,3.79,1.202,3.175
			C87.786,64.185,86.443,60.721,84.329,61.619"/>
		<path fill="#343433" d="M97.918,61.23c2.078-1.421,5.239-0.028,5.592,2.468c0.935,2.785-2.24,6.002-5.012,4.687
			C95.606,67.268,95.21,62.764,97.918,61.23 M99.954,61.81c-1.478,1.272,0.17,3.952,1.881,2.779
			C103.723,63.416,101.765,60.537,99.954,61.81"/>
		<path fill="#F6F6F6" d="M84.329,61.619c2.114-0.898,3.457,2.566,1.202,3.175C83.594,65.409,82.724,62.503,84.329,61.619"/>
		<path fill="#FFFFFF" d="M99.954,61.81c1.811-1.273,3.769,1.605,1.881,2.779C100.124,65.762,98.477,63.083,99.954,61.81"/>
		<path fill="#FFFFFF" d="M89.151,99.474c1.795,1.11,3.974,1.039,5.685-0.191c0.105,0.926,0.219,1.852,0.332,2.779
			c-2.425,1.746-4.603,3.803-7.042,5.536C88.465,104.89,88.805,102.182,89.151,99.474"/>
		<path fill="#FFFFFF" d="M87.666,111.274c2.665-2.064,5.232-4.256,7.869-6.356c0.156,1.117,0.297,2.241,0.438,3.365
			c-0.021,0.333-0.063,0.99-0.085,1.322c-2.948,2.496-5.968,4.893-8.951,7.339C87.164,115.049,87.411,113.162,87.666,111.274"/>
		<path fill="#FFFFFF" d="M96.49,112.398c0.204,1.563,0.396,3.132,0.587,4.702c-3.437,2.375-6.42,5.352-9.821,7.77
			c-0.353,0.092-1.053,0.283-1.4,0.375c0.234-1.676,0.488-3.351,0.707-5.034C90.112,117.934,93.16,114.972,96.49,112.398"/>
		<path fill="#FFFFFF" d="M85.326,129.72c4.101-3.203,8.088-6.54,12.097-9.849c0.198,1.548,0.389,3.111,0.587,4.667
			c-4.546,3.521-8.908,7.268-13.405,10.867C84.838,133.51,85.086,131.615,85.326,129.72"/>
		<path fill="#FFFFFF" d="M84.181,138.891c4.857-3.663,9.396-7.721,14.211-11.44c0.063,0.502,0.19,1.506,0.262,2.008
			c0.064,0.573,0.198,1.718,0.27,2.291c-4.929,4.539-10.31,8.59-15.5,12.847C83.686,142.695,83.94,140.792,84.181,138.891"/>
		<path fill="#FFFFFF" d="M85.813,145.918c4.539-3.627,8.979-7.381,13.526-10.994c0.189,1.534,0.367,3.075,0.564,4.617
			c-4.609,3.57-9.036,7.36-13.582,11.001c-0.891-0.827-1.796-1.626-2.722-2.404C84.287,147.347,84.979,146.555,85.813,145.918"/>
		<path fill="#FFFFFF" d="M88.231,152.303c4.03-3.281,7.989-6.639,12.069-9.856c0.191,1.641,0.396,3.281,0.658,4.914
			c-2.893,2.877-6.208,5.288-9.228,8.025C90.516,154.41,89.377,153.349,88.231,152.303"/>
		<path fill="#29636D" d="M75.901,91.576c2.524-0.495,5.119-0.317,7.671-0.24c-2.517,18.955-5.062,37.911-7.636,56.859
			c-5.67,0.021-11.333,0.021-17.004,0c1.124-11.475,2.39-22.95,4.228-34.34c0.856-5.515,2.355-11.009,5.133-15.88
			C69.976,95.062,72.543,92.41,75.901,91.576"/>
		<path fill="#29636D" d="M101.191,91.371c4.242-0.092,9.057-0.7,12.628,2.128c4.652,3.663,6.087,9.821,7.027,15.378
			c1.888,13.045,3.097,26.189,4.221,39.318c-5.387,0.021-10.774,0.014-16.169,0.007C106.289,129.261,103.906,110.291,101.191,91.371
			"/>
		<path fill="#0E2C2D" d="M83.572,91.335c2.489-0.057,4.978-0.262,7.466-0.007l-0.748,0.559c-2.843,1.47-3.423,5.352-1.14,7.586
			c-0.347,2.708-0.685,5.416-1.024,8.124c-0.156,1.223-0.305,2.445-0.459,3.676c-0.256,1.888-0.502,3.776-0.729,5.671
			c-0.127,1.089-0.254,2.177-0.374,3.266c-0.219,1.684-0.474,3.358-0.707,5.034c-0.205,1.485-0.347,2.984-0.531,4.476
			c-0.24,1.895-0.487,3.789-0.721,5.684c-0.141,1.16-0.283,2.319-0.424,3.486c-0.24,1.901-0.495,3.804-0.756,5.705
			c-0.036,1.167-0.665,2.518,0.176,3.543c0.926,0.777,1.831,1.576,2.722,2.403c0.63,0.586,1.267,1.173,1.909,1.76
			c1.146,1.047,2.283,2.107,3.5,3.083c0.827,2.63,0.594,5.402,0.502,8.109c-6.384,0.071-12.804,0.313-19.167-0.147
			c1.003-5.041,1.951-10.097,2.87-15.152C78.51,129.247,81.055,110.291,83.572,91.335"/>
		<path fill="#17474C" d="M91.038,91.329c3.373-0.198,6.773-0.021,10.153,0.042c2.715,18.92,5.099,37.89,7.707,56.832
			c0.644,4.814,1.224,9.636,1.951,14.444c-0.99,1.188-2.651,0.799-3.995,0.891c-4.871-0.106-9.75,0.028-14.621-0.042
			c0.092-2.708,0.325-5.48-0.502-8.11c3.02-2.736,6.335-5.147,9.228-8.025c-0.263-1.633-0.468-3.273-0.658-4.914
			c-0.127-0.968-0.27-1.944-0.396-2.906c-0.197-1.541-0.375-3.082-0.564-4.617c-0.221-1.824-0.446-3.648-0.687-5.465
			c-0.07-0.502-0.197-1.506-0.262-2.008c-0.127-0.976-0.254-1.951-0.382-2.913c-0.198-1.555-0.39-3.118-0.586-4.666
			c-0.121-0.927-0.234-1.853-0.348-2.771c-0.19-1.569-0.382-3.14-0.587-4.702c-0.169-1.371-0.346-2.743-0.516-4.114
			c-0.141-1.125-0.283-2.249-0.438-3.366c-0.128-0.954-0.247-1.909-0.367-2.855c-0.113-0.927-0.227-1.854-0.332-2.779
			c1.541-1.803,1.858-4.843-0.12-6.462c-1.132-1.28-2.936-0.856-4.426-0.933L91.038,91.329z"/>
		<path fill="#6FC5BC" d="M89.151,99.474c-2.285-2.234-1.705-6.116,1.138-7.586c1.492,0.077,3.295-0.347,4.426,0.933
			c1.979,1.619,1.662,4.659,0.121,6.462C93.125,100.513,90.946,100.583,89.151,99.474"/>
		<path fill="#8DD3D5" d="M88.126,107.597c2.438-1.731,4.616-3.79,7.042-5.536c0.12,0.947,0.239,1.902,0.367,2.856
			c-2.638,2.1-5.204,4.292-7.87,6.357C87.821,110.043,87.97,108.821,88.126,107.597"/>
		<path fill="#8DD3D5" d="M95.974,108.283c0.17,1.372,0.346,2.743,0.516,4.115c-3.329,2.573-6.377,5.536-9.927,7.812
			c0.121-1.088,0.248-2.177,0.375-3.266c2.984-2.446,6.003-4.843,8.951-7.339C95.91,109.273,95.953,108.615,95.974,108.283"/>
		<path fill="#8DD3D5" d="M87.256,124.87c3.401-2.418,6.384-5.395,9.821-7.77c0.113,0.919,0.226,1.845,0.346,2.771
			c-4.009,3.309-7.996,6.646-12.097,9.849c0.184-1.492,0.325-2.991,0.53-4.475C86.203,125.153,86.902,124.962,87.256,124.87"/>
		<path fill="#8DD3D5" d="M84.604,135.405c4.497-3.599,8.859-7.346,13.405-10.867c0.128,0.961,0.255,1.938,0.382,2.913
			c-4.815,3.719-9.354,7.777-14.211,11.44C84.322,137.724,84.464,136.565,84.604,135.405"/>
		<path fill="#8DD3D5" d="M98.653,129.458c0.24,1.817,0.467,3.642,0.686,5.465c-4.546,3.613-8.986,7.368-13.525,10.995
			c-0.834,0.636-1.527,1.428-2.213,2.22c-0.841-1.025-0.212-2.376-0.176-3.543c5.189-4.256,10.57-8.308,15.498-12.847
			C98.852,131.177,98.718,130.032,98.653,129.458"/>
		<path fill="#8DD3D5" d="M86.323,150.542c4.545-3.641,8.972-7.431,13.582-11.001c0.127,0.961,0.27,1.937,0.396,2.905
			c-4.08,3.217-8.039,6.576-12.069,9.855C87.589,151.716,86.952,151.129,86.323,150.542"/>
	</g>
</g>
<g id="Deskop">
</g>
</svg>
